# Blender v2.90.1 OBJ File: 'Table.blend'
# www.blender.org
mtllib Table.mtl
o Cube
v 8.344505 0.158530 -5.192884
v 8.344505 -0.158530 -5.192884
v 8.344505 0.158530 5.192884
v 8.344505 -0.158530 5.192884
v -8.344505 0.158530 -5.192884
v -8.344505 -0.158530 -5.192884
v -8.344505 0.158530 5.192884
v -8.344505 -0.158530 5.192884
vt 1.000000 0.810384
vt 0.000000 0.810384
vt 0.000000 0.189616
vt 1.000000 0.189616
vt 1.000000 0.189616
vt 0.000000 0.189616
vt 0.000000 0.810384
vt 1.000000 0.810384
vn 0.0000 1.0000 0.0000
vn 0.0000 0.0000 1.0000
vn -1.0000 0.0000 0.0000
vn 0.0000 -1.0000 0.0000
vn 1.0000 0.0000 0.0000
vn 0.0000 0.0000 -1.0000
usemtl Material
s off
f 1/1/1 5/2/1 7/3/1 3/4/1
f 4/5/2 3/4/2 7/3/2 8/6/2
f 8/6/3 7/3/3 5/2/3 6/7/3
f 6/7/4 2/8/4 4/5/4 8/6/4
f 2/8/5 1/1/5 3/4/5 4/5/5
f 6/7/6 5/2/6 1/1/6 2/8/6
